<svg xmlns="http://www.w3.org/2000/svg" viewBox="0 0 59 78.97">
  <defs>
    <style>
      .cls-1 {
        fill: #585857;
      }
    </style>
  </defs>
  <g id="Layer_2" data-name="Layer 2">
    <g id="Layer_1-2" data-name="Layer 1">
      <g id="title-doc-plus">
        <path id="Path_297" data-name="Path 297" class="cls-1" d="M50.27,0H8.73A8.76,8.76,0,0,0,0,8.76V70.21A8.75,8.75,0,0,0,8.73,79h10L59,68.32V8.76A8.75,8.75,0,0,0,50.27,0m-27,75.18L42.47,57.89a4.57,4.57,0,0,1,6.44.34h0l.18.22,6.49,8.18ZM56.5,63.76l-5.45-6.87a7.06,7.06,0,0,0-9.9-1.16h0l-.34.28L18.09,76.46H8.73A6.25,6.25,0,0,1,2.5,70.21V8.76A6.25,6.25,0,0,1,8.73,2.51H50.27A6.25,6.25,0,0,1,56.5,8.76Z"/>
        <path id="Path_298" data-name="Path 298" class="cls-1" d="M48.75,42.12H11.62a1.25,1.25,0,0,0-1.25,1.25h0a1.25,1.25,0,0,0,1.25,1.26H48.75A1.25,1.25,0,0,0,50,43.37h0a1.25,1.25,0,0,0-1.25-1.25"/>
        <path id="Path_299" data-name="Path 299" class="cls-1" d="M48.75,49.27H11.62a1.24,1.24,0,0,0-1.25,1.25h0a1.25,1.25,0,0,0,1.25,1.25H48.75A1.25,1.25,0,0,0,50,50.52h0a1.25,1.25,0,0,0-1.25-1.25"/>
        <path id="Path_300" data-name="Path 300" class="cls-1" d="M30.18,56.41H11.62a1.26,1.26,0,0,0-1.25,1.26h0a1.25,1.25,0,0,0,1.25,1.25H30.18a1.25,1.25,0,0,0,1.26-1.25h0a1.26,1.26,0,0,0-1.26-1.26"/>
        <path id="Path_301" data-name="Path 301" class="cls-1" d="M22.5,63.56H11.62a1.25,1.25,0,0,0-1.25,1.25h0a1.25,1.25,0,0,0,1.25,1.26H22.5a1.25,1.25,0,0,0,1.25-1.26h0a1.25,1.25,0,0,0-1.25-1.25"/>
        <path id="Path_302" data-name="Path 302" class="cls-1" d="M30.42,16.24v5.85H36a.87.87,0,0,1,.86.86h0a.87.87,0,0,1-.86.87H30.42v5.9a.92.92,0,0,1-.92.91h0a.92.92,0,0,1-.92-.91v-5.9H23A.87.87,0,0,1,22.1,23h0a.86.86,0,0,1,.86-.86h5.62V16.24a.92.92,0,0,1,.92-.92h0a.92.92,0,0,1,.92.92Z"/>
      </g>
    </g>
  </g>
</svg>
