<svg xmlns="http://www.w3.org/2000/svg" viewBox="0 0 47.27 47.27">
  <defs>
    <style>
      .cls-1, .cls-2, .cls-3 {
        fill: none;
      }

      .cls-1, .cls-2 {
        stroke: #1d1d1b;
        stroke-width: 2px;
      }

      .cls-2 {
        stroke-linecap: round;
        stroke-linejoin: round;
      }
    </style>
  </defs>
  <g id="Layer_2" data-name="Layer 2">
    <g id="calc">
      <g id="up">
        <g id="btn-next">
          <path id="Retângulo_2_copiar" data-name="Retângulo 2 copiar" class="cls-1" d="M8.25,23.64h0A15.6,15.6,0,0,1,23.85,8h0a15.59,15.59,0,0,1,15.6,15.6h0a15.6,15.6,0,0,1-15.6,15.6h0A15.61,15.61,0,0,1,8.25,23.64Z"/>
          <path id="Path_3057" data-name="Path 3057" class="cls-2" d="M18.65,21.9l5.55,5.55,5.55-5.55"/>
        </g>
        <rect id="Rectangle_820" data-name="Rectangle 820" class="cls-3" width="47.27" height="47.27"/>
      </g>
    </g>
  </g>
</svg>
