<svg xmlns="http://www.w3.org/2000/svg" viewBox="0 0 47.27 47.27">
  <defs>
    <style>
      .cls-1 {
        fill: none;
      }
    </style>
  </defs>
  <g id="Layer_2" data-name="Layer 2">
    <g id="calc">
      <g id="baby-f">
        <rect id="Rectangle_810" data-name="Rectangle 810" class="cls-1" width="47.27" height="47.27"/>
        <g id="Group_2292" data-name="Group 2292">
          <path id="Path_683" data-name="Path 683" d="M25.44,32.47a2.86,2.86,0,0,1-1.85.58,2.87,2.87,0,0,1-1.85-.58.44.44,0,0,0-.62,0,.43.43,0,0,0,0,.61h0a4,4,0,0,0,4.88,0,.43.43,0,0,0,0-.61h0a.44.44,0,0,0-.62,0"/>
          <path id="Path_684" data-name="Path 684" d="M29.58,26.39a.66.66,0,0,0-.66.65v.88a.66.66,0,0,0,1.32,0V27a.65.65,0,0,0-.66-.65"/>
          <path id="Path_685" data-name="Path 685" d="M17.33,26.39a.66.66,0,0,0-.66.65v.88a.66.66,0,0,0,1.32,0V27a.66.66,0,0,0-.66-.65"/>
          <path id="Path_686" data-name="Path 686" d="M40.22,26.25a3.36,3.36,0,0,0-3.07-3.65,13.43,13.43,0,0,0-5.8-10.47c0-.24,0-.5,0-.76,0-2.14-.5-3.37-1.52-3.76-1.24-.49-2.72.56-3.56,1.32a2.57,2.57,0,0,0-2-.95H22.6a2.57,2.57,0,0,0-2,.95c-.85-.76-2.32-1.81-3.56-1.32-1,.39-1.52,1.62-1.52,3.76a9,9,0,0,0,0,.92A13.49,13.49,0,0,0,10,22.59H9.83a3.34,3.34,0,0,0-3.31,3.66,5.24,5.24,0,0,0,5,5.14,12.95,12.95,0,0,0,23.83,0,5.23,5.23,0,0,0,4.85-5.12M29.4,8.79c.44.17.7,1.13.7,2.58a8.37,8.37,0,0,1-.05,1c-.09.9-.34,1.47-.68,1.58-.6.2-1.78-.65-2.53-1.39,0-.11,0-.23,0-.35V10.52c0-.12,0-.24,0-.35.77-.76,2-1.61,2.55-1.38m-6.79.46h1.71a1.29,1.29,0,0,1,1.28,1.27v1.69a1.21,1.21,0,0,1-.06.38h0a1.28,1.28,0,0,1-1.22.89H22.6a1.29,1.29,0,0,1-.73-.23h0a1,1,0,0,1-.21-.19h0a1.2,1.2,0,0,1-.33-.84v-1.7a1.24,1.24,0,0,1,.05-.38h0a1.28,1.28,0,0,1,1.22-.89m-5.09-.46c.59-.23,1.79.62,2.56,1.38,0,.12,0,.23,0,.35v1.69c0,.12,0,.24,0,.35-.75.74-1.93,1.58-2.53,1.39-.32-.1-.56-.61-.67-1.44h0a8.71,8.71,0,0,1-.06-1.14c0-1.44.26-2.41.7-2.58M34.89,30.14h-.2l0,0h0l0,0,0,0h0l0,0h0l0,0,0,0,0,0,0,0,0,0v.05l0,0h0a11.67,11.67,0,0,1-21.75,0h0l0-.05v0l0,0,0,0v0l0,0h0l0,0,0,0,0,0,0,0h0l0,0h0l0,0H12a4,4,0,0,1-4.2-3.9,2.13,2.13,0,0,1,2-2.39,2.64,2.64,0,0,1,.62.08h.42l0,0h0l0,0h0l0,0h0l0,0h0l0,0v0l0,0,0,0v0l0,0V23.5h0v-.17h0v-.09a12.19,12.19,0,0,1,4.57-9.52,2.11,2.11,0,0,0,1.33,1.47,1.77,1.77,0,0,0,.56.09A4.6,4.6,0,0,0,20.39,14,5.86,5.86,0,0,0,19,17.73a4.83,4.83,0,0,0,4.83,4.81,4,4,0,0,0,4-3.59,2.61,2.61,0,0,0,0-.39,3.32,3.32,0,0,0-3.32-3.31A2.44,2.44,0,0,0,22,17.82a2.36,2.36,0,0,0,2.36,2.35.64.64,0,0,0,.64-.64.64.64,0,0,0-.64-.63,1.08,1.08,0,0,1-1.08-1.08,1.19,1.19,0,0,1,1.31-1.3,2,2,0,0,1,2,2,2.44,2.44,0,0,1,0,.27,2.7,2.7,0,0,1-2.71,2.44,3.56,3.56,0,0,1-3.56-3.54,4.59,4.59,0,0,1,1.29-3.18,2.66,2.66,0,0,0,1,.2h1.71a2.57,2.57,0,0,0,2-.95,4.89,4.89,0,0,0,2.88,1.45,2,2,0,0,0,.59-.09,2.19,2.19,0,0,0,1.35-1.62,12.17,12.17,0,0,1,4.77,9.67v0h0v.07h0a0,0,0,0,1,0,0v.06s0,0,0,0v0s0,0,0,0v0l0,0h0l0,0h0l0,0h0a.62.62,0,0,0,.48.22h.38a2.13,2.13,0,0,1,2,2.39,4,4,0,0,1-4,3.89"/>
          <rect id="Rectangle_173" data-name="Rectangle 173" class="cls-1" x="6.57" y="7.62" width="33.61" height="31.78"/>
        </g>
      </g>
    </g>
  </g>
</svg>
