<svg xmlns="http://www.w3.org/2000/svg" viewBox="0 0 120 120">
  <defs>
    <style>
      .cls-1 {
        fill: #fff;
      }

      .cls-2 {
        fill: #595857;
      }

      .cls-3 {
        fill: none;
      }
    </style>
  </defs>
  <g id="Layer_2" data-name="Layer 2">
    <g id="Layer_1-2" data-name="Layer 1">
      <g id="bed">
        <g>
          <path id="Path_3040" data-name="Path 3040" class="cls-1" d="M99.5,55.14H74.76V43H88.59A1.37,1.37,0,0,0,90,41.6V21.81a1.37,1.37,0,0,0-1.37-1.37H59.39A1.38,1.38,0,0,0,58,21.81V42a1.37,1.37,0,0,0,1.38,1.37H72.81V55.13H29.22L19.16,48.46c-.08-.05-1.35-.89-1.43-.92-1.86-.78-2.77-.57-4.44.54a6,6,0,0,0-2.66,5c0,2.44,1.44,3.4,3.68,4.34l13.8,8.51a1.32,1.32,0,0,0,.7.19H54.89V89.2H47c-2.64,0-4.79,1.75-4.79,4.39v1a5.51,5.51,0,0,0-4.12,5.31c0,3,1.67,5.09,4.69,5.09a5.86,5.86,0,0,0,5.31-4.52l33.55.4a5.86,5.86,0,0,0,5.31,4.52c3,0,4.69-2.46,4.69-5.49a5.5,5.5,0,0,0-4.12-5.31v-1c0-2.64-2.15-4.39-4.79-4.39H74.76V66.11H99.11a6,6,0,0,0,6.28-5.63,2.26,2.26,0,0,1,0-.26C105.39,56.76,103,55.14,99.5,55.14Z"/>
          <path id="Path_3041" data-name="Path 3041" class="cls-2" d="M99.6,53.88H75.05V43.55H88.9a1.2,1.2,0,0,0,1.2-1.2h0V20.61a1.2,1.2,0,0,0-1.2-1.2H58.8a1.2,1.2,0,0,0-1.2,1.2h0V42.35a1.2,1.2,0,0,0,1.2,1.2H72.65V53.88H28.07L17.79,47.06l-.2-.11a5.9,5.9,0,0,0-4.86,10.76l.33.13,14,8.26a1.21,1.21,0,0,0,.61.16H54.43V88.92H46.16a4.68,4.68,0,0,0-4.67,4.67v1.16a5.38,5.38,0,1,0,6.45,6.44h33.6A5.38,5.38,0,1,0,88,94.75V93.59a4.67,4.67,0,0,0-4.67-4.67H75.05V66.27H99.6a6.2,6.2,0,0,0,0-12.39ZM60,41.16V21.81H87.7V41.16ZM42.69,103a3,3,0,1,1,3-3h0a3,3,0,0,1-3,3Zm47.08-3a3,3,0,1,1-3-3h0A3,3,0,0,1,89.77,100Zm-6.46-8.68a2.27,2.27,0,0,1,2.28,2.27v1.16a5.4,5.4,0,0,0-4,4H47.94a5.43,5.43,0,0,0-4-4V93.59a2.28,2.28,0,0,1,2.28-2.27Zm-26.49-2.4V66.27H72.65V88.92ZM99.6,63.87H28L14.2,55.73,14,55.65a3.5,3.5,0,0,1,1.29-6.76,3.55,3.55,0,0,1,1.25.23l10.48,7a1.17,1.17,0,0,0,.66.2H99.6a3.8,3.8,0,1,1,0,7.6Z"/>
          <path id="Path_3042" data-name="Path 3042" class="cls-2" d="M84.72,32.26H79.35l-1.53-2.09a1.2,1.2,0,0,0-1.68-.25,1.18,1.18,0,0,0-.29.3l-2.21,3.37-3.15-7.2a1.19,1.19,0,0,0-1.58-.61,1.12,1.12,0,0,0-.5.41l-3.8,5.54H63a1.2,1.2,0,1,0-.17,2.39h2.42a1.17,1.17,0,0,0,1-.52l2.94-4.28,3.17,7.25a1.19,1.19,0,0,0,1,.71h.1a1.18,1.18,0,0,0,1-.54L76.91,33l.87,1.19a1.24,1.24,0,0,0,1,.49h6A1.21,1.21,0,0,0,86,33.53a1.2,1.2,0,0,0-1.11-1.28h-.18Z"/>
          <path id="Path_3043" data-name="Path 3043" class="cls-2" d="M69.9,86.84H59.58a1.2,1.2,0,0,1-1.2-1.2h0V70a1.2,1.2,0,0,1,1.2-1.2H69.9A1.2,1.2,0,0,1,71.1,70V85.64A1.2,1.2,0,0,1,69.9,86.84Zm-9.12-2.4H68.7V71.19H60.78Z"/>
        </g>
        <rect class="cls-3" width="120" height="120"/>
      </g>
    </g>
  </g>
</svg>
