<svg xmlns="http://www.w3.org/2000/svg" viewBox="0 0 47.27 47.27">
  <defs>
    <style>
      .cls-1 {
        fill: none;
      }
    </style>
  </defs>
  <g id="Layer_2" data-name="Layer 2">
    <g id="calc">
      <g id="man">
        <rect id="Rectangle_812" data-name="Rectangle 812" class="cls-1" width="47.27" height="47.27"/>
        <g id="Group_2285" data-name="Group 2285">
          <path id="Path_352" data-name="Path 352" d="M29.77,29.15a1,1,0,0,1-.94-.95h0V26.93a.95.95,0,1,1,1.89,0V28.2a1,1,0,0,1-.95.95h0"/>
          <path id="Path_353" data-name="Path 353" d="M17.9,29.15A1,1,0,0,1,17,28.2h0V26.93a.95.95,0,1,1,1.89,0V28.2a1,1,0,0,1-.94.95h0"/>
          <path id="Path_354" data-name="Path 354" d="M23.83,35.31a5.34,5.34,0,0,1-3.5-1.17.63.63,0,0,1,.85-.94,4,4,0,0,0,2.65.85,4.05,4.05,0,0,0,2.66-.85.63.63,0,0,1,.89,0,.64.64,0,0,1,0,.89,5.35,5.35,0,0,1-3.51,1.17"/>
          <path id="Path_355" data-name="Path 355" d="M23.71,39.39A12.83,12.83,0,0,1,11.8,31.21.63.63,0,1,1,13,30.76a11.52,11.52,0,0,0,21.49,0,.63.63,0,0,1,.81-.37.64.64,0,0,1,.37.82,12.86,12.86,0,0,1-11.93,8.19"/>
          <path id="Path_356" data-name="Path 356" d="M12.39,31.61h0A5.23,5.23,0,0,1,7,26.48a3.33,3.33,0,0,1,3.28-3.64,3.8,3.8,0,0,1,.94.13.63.63,0,0,1-.31,1.22h0a2.15,2.15,0,0,0-.61-.09,2.12,2.12,0,0,0-2,2.38,4,4,0,0,0,4.15,3.87.63.63,0,1,1,0,1.26"/>
          <path id="Path_357" data-name="Path 357" d="M35.05,31.6a.63.63,0,0,1-.63-.63.64.64,0,0,1,.59-.63,3.93,3.93,0,0,0,4-3.86,2.12,2.12,0,0,0-2-2.38l-.29,0a.62.62,0,0,1-.71-.53.63.63,0,0,1,.53-.72h0a3.4,3.4,0,0,1,.45,0,3.33,3.33,0,0,1,3.28,3.64,5.22,5.22,0,0,1-5.19,5.12h0"/>
          <path id="Path_358" data-name="Path 358" d="M18,33.91l-.21,0a4.25,4.25,0,0,1-2.08-2.24.81.81,0,0,0-.51-.45,3,3,0,0,0-1.85.34.64.64,0,0,1-.86-.24.63.63,0,0,1,.25-.86h0A4.09,4.09,0,0,1,15.54,30a2.08,2.08,0,0,1,1.25,1.07,4.89,4.89,0,0,0,.94,1.32c.63-.83,2.22-2,6.1-2a.63.63,0,0,1,.63.63.63.63,0,0,1-.63.63c-4.62,0-5.27,1.83-5.28,1.85a.62.62,0,0,1-.31.38.45.45,0,0,1-.28.07"/>
          <path id="Path_359" data-name="Path 359" d="M29.72,33.91a.62.62,0,0,1-.6-.47s-.66-1.83-5.29-1.83a.63.63,0,0,1,0-1.26c3.89,0,5.48,1.2,6.11,2a4.86,4.86,0,0,0,.93-1.32A2.12,2.12,0,0,1,32.13,30a4.1,4.1,0,0,1,2.82.43.62.62,0,0,1,.25.85.63.63,0,0,1-.84.26,3,3,0,0,0-1.86-.34.81.81,0,0,0-.5.44,4.25,4.25,0,0,1-2.08,2.25.64.64,0,0,1-.2,0"/>
          <path id="Path_360" data-name="Path 360" d="M36.63,24.13A.63.63,0,0,1,36,23.5v-.05a12.14,12.14,0,0,0-3.29-8.3.62.62,0,0,1,0-.89.63.63,0,0,1,.89,0l0,0a13.39,13.39,0,0,1,3.63,9.17v.05a.63.63,0,0,1-.63.62h0"/>
          <path id="Path_361" data-name="Path 361" d="M11,24.21a.63.63,0,0,1-.63-.63v-.12A13.44,13.44,0,0,1,23.84,10a.63.63,0,0,1,0,1.26h0A12.18,12.18,0,0,0,11.67,23.46v.11a.63.63,0,0,1-.62.64h0Z"/>
          <path id="Path_362" data-name="Path 362" d="M12.24,27.1H11a.63.63,0,0,1-.63-.63V23.58a.63.63,0,0,1,1.26,0h0v2.26h.57a.84.84,0,0,0,.89-.78V23.47a.64.64,0,0,1,.63-.63h0a4,4,0,0,0,2.55-.77,2,2,0,0,0,.57-1.5.63.63,0,0,1,.63-.63.61.61,0,0,1,.39.13c1.32,1,3.51,1.55,6.34,1.55,5,0,6.81-2.6,8.29-7.1a.63.63,0,0,1,1.2.4h0c-1.33,4-3.15,8-9.49,8A13.17,13.17,0,0,1,18,21.63,3,3,0,0,1,17.21,23a4.72,4.72,0,0,1-2.82,1.1v1a2.09,2.09,0,0,1-2.15,2"/>
          <path id="Path_363" data-name="Path 363" d="M33.17,15.35a.63.63,0,0,1-.63-.63.69.69,0,0,1,0-.2c.21-.64.39-1.16.62-1.83s.14-1.25-.27-1.44-.83,0-1.18.56-.62,1-1.19.79-.43-.76-.11-1.87a.65.65,0,0,0-.26-.83c-.24-.12-.67-.08-1,.43-.94,1.26-2.23,1.16-3.72,1.05-.5,0-1-.08-1.59-.08a.63.63,0,0,1-.63-.63.64.64,0,0,1,.63-.63h0c.62,0,1.19.05,1.68.08,1.45.11,2.11.13,2.61-.54a2.09,2.09,0,0,1,2.62-.81,1.79,1.79,0,0,1,1,1.38,2,2,0,0,1,1.72,0c.84.38,1.45,1.46.93,3-.23.66-.4,1.17-.61,1.81a.64.64,0,0,1-.6.44"/>
          <path id="Path_364" data-name="Path 364" d="M36.63,27.1H35.55A2.19,2.19,0,0,1,33.3,25v-.89A4.72,4.72,0,0,1,30.48,23a3.22,3.22,0,0,1-1-2.42.63.63,0,0,1,1.26,0,2,2,0,0,0,.58,1.5,3.88,3.88,0,0,0,2.55.77.64.64,0,0,1,.66.6V25a.93.93,0,0,0,1,.86H36V24a.63.63,0,0,1,1.26,0v2.52a.63.63,0,0,1-.63.63"/>
        </g>
      </g>
    </g>
  </g>
</svg>
