<svg xmlns="http://www.w3.org/2000/svg" viewBox="0 0 47.27 47.27">
  <defs>
    <style>
      .cls-1 {
        fill: #1d1d1b;
      }

      .cls-2 {
        fill: none;
      }
    </style>
  </defs>
  <g id="Layer_2" data-name="Layer 2">
    <g id="calc">
      <g id="right">
        <g id="btn-next">
          <path class="cls-1" d="M23.37,40.58A16.6,16.6,0,1,1,40,24,16.62,16.62,0,0,1,23.37,40.58Zm0-31.2A14.6,14.6,0,1,0,38,24,14.62,14.62,0,0,0,23.37,9.38Z"/>
          <path class="cls-1" d="M21.64,30.18a1,1,0,0,1-.71-.29,1,1,0,0,1,0-1.42l4.84-4.84L20.93,18.8a1,1,0,0,1,1.42-1.42l5.54,5.55a1,1,0,0,1,0,1.41l-5.54,5.55A1,1,0,0,1,21.64,30.18Z"/>
        </g>
        <rect id="Rectangle_820" data-name="Rectangle 820" class="cls-2" width="47.27" height="47.27"/>
      </g>
    </g>
  </g>
</svg>
