<svg xmlns="http://www.w3.org/2000/svg" viewBox="0 0 61.61 79.86">
  <defs>
    <style>
      .cls-1 {
        fill: #585857;
      }
    </style>
  </defs>
  <g id="Layer_2" data-name="Layer 2">
    <g id="Layer_1-2" data-name="Layer 1">
      <g id="title-doc-tick-plus">
        <g id="Path_118" data-name="Path 118">
          <path id="Path_3049" data-name="Path 3049" class="cls-1" d="M45.41,71.64a1.32,1.32,0,0,1-.93-.4l-5.76-6.06a1.28,1.28,0,1,1,1.85-1.77l4.69,4.93,7.55-10.7a1.28,1.28,0,1,1,2.1,1.48l-8.45,12a1.23,1.23,0,0,1-1,.54Z"/>
        </g>
        <path id="Path_3050" data-name="Path 3050" class="cls-1" d="M36.59,27.83h-8V20.15a1.23,1.23,0,1,0-2.45,0v7.68H18.28a1.23,1.23,0,1,0,0,2.46h7.89v8a1.23,1.23,0,1,0,2.45,0v-8h8a1.23,1.23,0,0,0,0-2.46Z"/>
        <g id="Line_13" data-name="Line 13">
          <path id="Path_3051" data-name="Path 3051" class="cls-1" d="M28.43,48.34H7.68a1.23,1.23,0,0,1,0-2.46H28.43a1.23,1.23,0,0,1,0,2.46Z"/>
        </g>
        <g id="Line_14" data-name="Line 14">
          <path id="Path_3052" data-name="Path 3052" class="cls-1" d="M28.43,55.61H7.68a1.23,1.23,0,0,1,0-2.46H28.43a1.23,1.23,0,0,1,0,2.46Z"/>
        </g>
        <g id="Line_15" data-name="Line 15">
          <path id="Path_3053" data-name="Path 3053" class="cls-1" d="M28.43,62.88H7.68a1.23,1.23,0,1,1,0-2.45H28.43a1.23,1.23,0,0,1,0,2.45Z"/>
        </g>
        <path id="Path_3054" data-name="Path 3054" class="cls-1" d="M53.42,51.82V18.59A9.09,9.09,0,0,0,44.33,9.5H42.19V8.41A3.39,3.39,0,0,0,38.8,5H32.42A6,6,0,0,0,20.58,5H14.63a3.4,3.4,0,0,0-3.4,3.39V9.5H9.1A9.1,9.1,0,0,0,0,18.59V65.53a9.12,9.12,0,0,0,9.1,9.1H35.52a14.8,14.8,0,1,0,17.9-22.81ZM26.5,2.45A3.57,3.57,0,0,1,29.91,5H23.09A3.57,3.57,0,0,1,26.5,2.45Zm-12.81,6a1,1,0,0,1,.94-.94H38.8a1,1,0,0,1,.94.94V13a1,1,0,0,1-.94.94H14.63a.94.94,0,0,1-.94-.94ZM2.46,65.53V18.59A6.66,6.66,0,0,1,9.1,12h2.14V13a3.39,3.39,0,0,0,3.39,3.39H38.8A3.39,3.39,0,0,0,42.19,13V12h2.14A6.65,6.65,0,0,1,51,18.59V50.84h0A14.79,14.79,0,0,0,33.81,72.17H9.1A6.64,6.64,0,0,1,2.46,65.53ZM52.23,51.28l0,0ZM34.61,73.44v0Zm12.18,3.93A12.34,12.34,0,1,1,59.16,65,12.33,12.33,0,0,1,46.79,77.37Z"/>
      </g>
    </g>
  </g>
</svg>
