<svg xmlns="http://www.w3.org/2000/svg" viewBox="0 0 63.78 32.58">
  <defs>
    <style>
      .cls-1 {
        isolation: isolate;
      }

      .cls-2 {
        fill: #fff;
      }

      .cls-3 {
        fill: #ccc;
      }

      .cls-3, .cls-4 {
        mix-blend-mode: multiply;
      }

      .cls-4 {
        fill: #b3b3b3;
      }
    </style>
  </defs>
  <g class="cls-1">
    <g id="Layer_2" data-name="Layer 2">
      <g id="Layer_1-2" data-name="Layer 1">
        <g>
          <path class="cls-2" d="M10.42,25.35V22.56H17v2.79Z"/>
          <path class="cls-2" d="M6.47,17.69V32.15H3.24V17.69H0v-3H9.73v3Z"/>
          <path class="cls-2" d="M21.17,32.15V14.67h3.24V29.13h5.34v3Z"/>
          <path class="cls-2" d="M41.47,32.15V30.52a6.48,6.48,0,0,1-4.59,2.06c-3.94,0-6.38-3.33-6.38-7.07a6.64,6.64,0,0,1,6.57-6.92A5.81,5.81,0,0,1,41,20.15a4.14,4.14,0,0,1,.47.54h0V19h2.88V32.15ZM37.55,21.47a4,4,0,0,0-3.9,4.19,3.94,3.94,0,0,0,3.9,4,3.87,3.87,0,0,0,3.82-4.14A3.85,3.85,0,0,0,37.55,21.47Z"/>
          <path class="cls-2" d="M59.83,28.4a6.16,6.16,0,0,1-6,4.18,5.29,5.29,0,0,1-4.41-2v1.58H46.57V14.67h3.15v5.55a5.8,5.8,0,0,1,4.08-1.63,6.76,6.76,0,0,1,6.59,7A8,8,0,0,1,59.83,28.4Zm-6.41-6.93a3.93,3.93,0,0,0-3.89,4,4,4,0,0,0,3.94,4.28,3.84,3.84,0,0,0,3.78-4.14A3.87,3.87,0,0,0,53.42,21.47Z"/>
          <g>
            <g>
              <path class="cls-2" d="M44.6,8.14c1.08.69,2.31,2.1,3.53,2.21,2.58.22,1.95-4.28.66-6.61C47,.48,41.26-.69,39.8.39S41.87,6.39,44.6,8.14Z"/>
              <path class="cls-2" d="M45.36,11.09c1.19-.25,2.68-.93,3.83-.85.29-2.42-1.51-4.16-3.92-4.88-3.37-1-8,2-8.24,3.69S42.38,11.72,45.36,11.09Z"/>
              <path class="cls-2" d="M46.77,10.86c.9-.18,2.22-.08,2.89-.62,1.42-1.17-1.12-3.14-2.94-3.69-2.53-.76-6,1.48-6.21,2.75S44.52,11.33,46.77,10.86Z"/>
              <path class="cls-2" d="M46.62,9.22c.76.38,1.67,1.22,2.48,1.2,1.71,0,1-2.95-.05-4.39-1.42-2-5.27-2.36-6.14-1.54S44.7,8.28,46.62,9.22Z"/>
              <path class="cls-2" d="M48.22,11.89c.7-.62,1.64-1.4,1.81-2.22.38-1.74-2.74-1.71-4.45-1-2.39.95-3.68,4.76-3.07,5.85S46.54,13.36,48.22,11.89Z"/>
              <path class="cls-2" d="M55.52,11.35c-1.29,0-3.09.52-4.17,0-2.29-1.21.67-4.65,3-5.92,3.28-1.76,8.73.36,9.36,2.06S58.76,11.36,55.52,11.35Z"/>
              <path class="cls-2" d="M53.28,13.42c-.86-.86-1.75-2.24-2.76-2.79C51.58,8.44,54,8,56.46,8.65c3.37,1,5.63,6,4.93,7.57S55.45,15.56,53.28,13.42Z"/>
              <path class="cls-2" d="M52.22,12.46c-.66-.64-1.83-1.26-2.09-2.09-.57-1.74,2.64-2,4.46-1.5,2.54.73,4.26,4.5,3.74,5.67S53.85,14.07,52.22,12.46Z"/>
              <path class="cls-2" d="M53.23,11.17c-.84-.1-2.06.11-2.73-.34-1.42-1,.78-3,2.42-3.67,2.28-.92,5.71.87,6,2S55.36,11.41,53.23,11.17Z"/>
              <path class="cls-2" d="M50.45,12.54a5.13,5.13,0,0,1-.33-2.85c.62-1.66,3.23.06,4.3,1.56,1.49,2.09.52,6-.59,6.57S51.06,14.69,50.45,12.54Z"/>
            </g>
            <g>
              <path class="cls-3" d="M44.6,8.14c1.08.69,2.31,2.1,3.53,2.21,2.58.22,1.95-4.28.66-6.61C47,.48,41.26-.69,39.8.39S41.87,6.39,44.6,8.14Z"/>
              <path class="cls-3" d="M45.36,11.09c1.19-.25,2.68-.93,3.83-.85.29-2.42-1.51-4.16-3.92-4.88-3.37-1-8,2-8.24,3.69S42.38,11.72,45.36,11.09Z"/>
              <path class="cls-4" d="M46.77,10.86c.9-.18,2.22-.08,2.89-.62,1.42-1.17-1.12-3.14-2.94-3.69-2.53-.76-6,1.48-6.21,2.75S44.52,11.33,46.77,10.86Z"/>
              <path class="cls-2" d="M46.62,9.22c.76.38,1.67,1.22,2.48,1.2,1.71,0,1-2.95-.05-4.39-1.42-2-5.27-2.36-6.14-1.54S44.7,8.28,46.62,9.22Z"/>
              <path class="cls-4" d="M48.22,11.89c.7-.62,1.64-1.4,1.81-2.22.38-1.74-2.74-1.71-4.45-1-2.39.95-3.68,4.76-3.07,5.85S46.54,13.36,48.22,11.89Z"/>
              <path class="cls-3" d="M55.52,11.35c-1.29,0-3.09.52-4.17,0-2.29-1.21.67-4.65,3-5.92,3.28-1.76,8.73.36,9.36,2.06S58.76,11.36,55.52,11.35Z"/>
              <path class="cls-3" d="M53.28,13.42c-.86-.86-1.75-2.24-2.76-2.79C51.58,8.44,54,8,56.46,8.65c3.37,1,5.63,6,4.93,7.57S55.45,15.56,53.28,13.42Z"/>
              <path class="cls-4" d="M52.22,12.46c-.66-.64-1.83-1.26-2.09-2.09-.57-1.74,2.64-2,4.46-1.5,2.54.73,4.26,4.5,3.74,5.67S53.85,14.07,52.22,12.46Z"/>
              <path class="cls-2" d="M53.23,11.17c-.84-.1-2.06.11-2.73-.34-1.42-1,.78-3,2.42-3.67,2.28-.92,5.71.87,6,2S55.36,11.41,53.23,11.17Z"/>
              <path class="cls-4" d="M50.45,12.54a5.13,5.13,0,0,1-.33-2.85c.62-1.66,3.23.06,4.3,1.56,1.49,2.09.52,6-.59,6.57S51.06,14.69,50.45,12.54Z"/>
            </g>
          </g>
        </g>
      </g>
    </g>
  </g>
</svg>
