<svg xmlns="http://www.w3.org/2000/svg" viewBox="0 0 119 119">
  <defs>
    <style>
      .cls-1 {
        fill: #fff;
      }

      .cls-2 {
        fill: #595857;
      }

      .cls-3 {
        fill: none;
      }
    </style>
  </defs>
  <g id="Layer_2" data-name="Layer 2">
    <g id="Layer_1-2" data-name="Layer 1">
      <g id="capsule">
        <g>
          <path id="Path_2974" data-name="Path 2974" class="cls-1" d="M47.18,58.56a5.06,5.06,0,0,0,5.39-7.44c2.08-4.1,2.38-7.65.79-9.83l-.06-.07-.37-.38-.06-.05-.06-.06L40,27.87c-8.33-8.33-20.64-9.59-27.42-2.81A15.84,15.84,0,0,0,8.29,38.33a23.9,23.9,0,0,0,7.05,14.15L28.61,65.75l.14.12a5.8,5.8,0,0,0,3.52,1c4,0,9.4-2.83,14.34-7.77Z"/>
          <path id="Path_2975" data-name="Path 2975" class="cls-1" d="M106.47,25.06C99.68,18.27,87.38,19.53,79,27.87L65.76,41.15l-.12.14c-2.45,3.36-.25,10.07,5.24,16.24a5.06,5.06,0,0,0,7.69,6.54,16.42,16.42,0,0,0,8.17,2.84,5.75,5.75,0,0,0,3.5-1l.08-.05,13.33-13.34C112,44.15,113.25,31.84,106.47,25.06Z"/>
          <path id="Path_2976" data-name="Path 2976" class="cls-1" d="M62.06,70.68A5.07,5.07,0,1,0,57,65.61h0A5.07,5.07,0,0,0,62.06,70.68Z"/>
          <path id="Path_2977" data-name="Path 2977" class="cls-1" d="M52.61,65.65a5.07,5.07,0,1,0-5.07,5.06A5.07,5.07,0,0,0,52.61,65.65Z"/>
          <circle id="Ellipse_61" data-name="Ellipse 61" class="cls-1" cx="58.25" cy="78.12" r="5.07"/>
          <path id="Path_2978" data-name="Path 2978" class="cls-1" d="M67.3,94a5.07,5.07,0,1,0,5.07,5.07h0A5.08,5.08,0,0,0,67.3,94Z"/>
          <circle id="Ellipse_62" data-name="Ellipse 62" class="cls-1" cx="53.66" cy="91.45" r="5.07"/>
          <path id="Path_2979" data-name="Path 2979" class="cls-1" d="M74.29,70.38a5.07,5.07,0,1,0,5.07,5.07A5.07,5.07,0,0,0,74.29,70.38Z"/>
          <path id="Path_2980" data-name="Path 2980" class="cls-2" d="M74.93,44.2A5.07,5.07,0,1,0,80,49.27h0A5.07,5.07,0,0,0,74.93,44.2Zm0,7.63a2.56,2.56,0,1,1,2.55-2.56h0A2.56,2.56,0,0,1,74.93,51.83Z"/>
          <path id="Path_2981" data-name="Path 2981" class="cls-2" d="M47.18,58.56a5.06,5.06,0,0,0,5.39-7.44c2.08-4.1,2.38-7.65.79-9.83l-.06-.07-.37-.38-.06-.05-.06-.06L40,27.87c-8.33-8.33-20.64-9.59-27.42-2.81A15.84,15.84,0,0,0,8.29,38.33a23.9,23.9,0,0,0,7.05,14.15L28.61,65.75l.14.12a5.8,5.8,0,0,0,3.52,1c4,0,9.4-2.83,14.34-7.77Zm3.67-16.21a1.24,1.24,0,0,1,.22.18l.06.07a1.63,1.63,0,0,1,.17.2c.9,1.23.65,3.61-.62,6.41a5.06,5.06,0,0,0-5.88,8.17c-5.92,5.9-12.29,8.1-14.55,6.43L30,63.63l0,0a1.43,1.43,0,0,1-.2-.23c-.86-1.17-.67-3.41.45-6A5.06,5.06,0,0,0,36.06,49l.22-.22C42.2,42.9,48.58,40.69,50.85,42.35ZM34.35,50.9a2.56,2.56,0,1,1-2.65,4.37,1.61,1.61,0,0,1-.3-.21,29.53,29.53,0,0,1,3-4.16Zm13.8,5.25a2.56,2.56,0,1,1,2.56-2.56h0a2.58,2.58,0,0,1-2.56,2.56ZM10.78,38.05A13.4,13.4,0,0,1,14.3,26.83c5.81-5.8,16.52-4.54,23.88,2.81l9.7,9.7C44,39.74,39.05,42.5,34.5,47c-.52.54-1,1-1.43,1.52a31.35,31.35,0,0,0-4.31,6.09,16.35,16.35,0,0,0-1.94,5.77l-9.71-9.71a21.46,21.46,0,0,1-6.33-12.66Z"/>
          <path id="Path_2982" data-name="Path 2982" class="cls-2" d="M106.47,25.06C99.68,18.27,87.38,19.53,79,27.87L65.76,41.15l-.12.14c-2.45,3.36-.25,10.07,5.24,16.24a5.06,5.06,0,0,0,7.69,6.54,16.42,16.42,0,0,0,8.17,2.84,5.75,5.75,0,0,0,3.5-1l.08-.05,13.33-13.34C112,44.15,113.25,31.84,106.47,25.06ZM84.05,50.23a30.22,30.22,0,0,1,3,3.93,2.57,2.57,0,0,1-3.34-1.4A2.54,2.54,0,0,1,84.05,50.23Zm2,6.62a5.07,5.07,0,0,0,2.2-.51c1.53,3.07,1.88,5.7.89,7a1.37,1.37,0,0,1-.19.22,1.64,1.64,0,0,1-.25.21c-1.61,1.19-5.12.4-8.92-2a5,5,0,0,0-3.56-6.2,5,5,0,0,0-3.4.28c-5-5.63-6.63-11.14-5.16-13.15a2.52,2.52,0,0,1,.21-.25,2.32,2.32,0,0,1,.25-.21c2.2-1.61,8.35.46,14.15,6.07a5.07,5.07,0,0,0,3.78,8.44ZM74.93,63.12a2.56,2.56,0,1,1,2.55-2.56h0a2.56,2.56,0,0,1-2.55,2.56Zm26.95-12.41-9.71,9.71a17.11,17.11,0,0,0-2.35-6.52,32.23,32.23,0,0,0-4.76-6.26c-.18-.2-.38-.4-.58-.6-4.54-4.55-9.5-7.3-13.37-7.7l9.7-9.7c7.36-7.36,18.07-8.62,23.88-2.81s4.55,16.52-2.81,23.88Z"/>
          <path id="Path_2983" data-name="Path 2983" class="cls-2" d="M62.06,70.68A5.07,5.07,0,1,0,57,65.61h0A5.07,5.07,0,0,0,62.06,70.68Zm0-7.62a2.56,2.56,0,1,1-2.56,2.56h0A2.56,2.56,0,0,1,62.06,63.06Z"/>
          <path id="Path_2984" data-name="Path 2984" class="cls-2" d="M52.61,65.65a5.07,5.07,0,1,0-5.07,5.06A5.07,5.07,0,0,0,52.61,65.65Zm-5.07,2.56a2.56,2.56,0,1,1,2.56-2.56A2.56,2.56,0,0,1,47.54,68.21Z"/>
          <path id="Path_2985" data-name="Path 2985" class="cls-2" d="M58.25,73.06a5.07,5.07,0,1,0,5.07,5.06h0A5.07,5.07,0,0,0,58.25,73.06Zm0,7.62a2.56,2.56,0,1,1,2.56-2.56h0a2.56,2.56,0,0,1-2.56,2.56Z"/>
          <path id="Path_2986" data-name="Path 2986" class="cls-2" d="M67.3,94a5.07,5.07,0,1,0,5.07,5.07h0A5.08,5.08,0,0,0,67.3,94Zm0,7.63a2.56,2.56,0,1,1,2.56-2.56h0a2.56,2.56,0,0,1-2.56,2.56Z"/>
          <path id="Path_2987" data-name="Path 2987" class="cls-2" d="M53.66,86.39a5.07,5.07,0,1,0,5.07,5.06A5.07,5.07,0,0,0,53.66,86.39Zm0,7.62a2.56,2.56,0,1,1,2.56-2.56h0A2.55,2.55,0,0,1,53.66,94Z"/>
          <path id="Path_2988" data-name="Path 2988" class="cls-2" d="M74.29,70.38a5.07,5.07,0,1,0,5.07,5.07A5.07,5.07,0,0,0,74.29,70.38Zm0,7.63a2.56,2.56,0,1,1,2.56-2.56h0A2.56,2.56,0,0,1,74.29,78Z"/>
        </g>
        <rect class="cls-3" width="119" height="119"/>
      </g>
    </g>
  </g>
</svg>
