<svg xmlns="http://www.w3.org/2000/svg" width="69.073" height="60.854" viewBox="0 0 69.073 60.854">
  <g id="Group_2277" data-name="Group 2277" transform="translate(1.042 0.784)">
    <path id="Path_191" data-name="Path 191" d="M2.423,55.062l29.9-51.691a3.592,3.592,0,0,1,6.215,0l29.9,51.691a3.582,3.582,0,0,1-3.108,5.373H5.531a3.582,3.582,0,0,1-3.108-5.373" transform="translate(-1.866 -1.581)" fill="#fff"/>
    <path id="Path_192" data-name="Path 192" d="M42.2,46.3a1.68,1.68,0,0,1-1.627-1.579L38.759,26.136c-.263-3.2.953-4.845,3.446-4.845s3.709,1.649,3.446,4.845L43.831,44.726A1.68,1.68,0,0,1,42.2,46.3" transform="translate(-8.71 -5.248)" fill="#54565a"/>
    <path id="Path_193" data-name="Path 193" d="M45.628,59.387a3.52,3.52,0,1,1-3.519-3.513,3.516,3.516,0,0,1,3.519,3.513" transform="translate(-8.685 -11.682)" fill="#54565a"/>
    <path id="Path_194" data-name="Path 194" d="M2.336,55.328l29.9-51.691a3.592,3.592,0,0,1,6.215,0l29.9,51.691A3.582,3.582,0,0,1,65.244,60.7H5.444A3.582,3.582,0,0,1,2.336,55.328Z" transform="translate(-1.85 -1.63)" fill="none" stroke="#54565a" stroke-miterlimit="10" stroke-width="2"/>
  </g>
</svg>
